#MiniLight

100

420 420

(0.5 1.525 0.5) (0 -1 0) 45


(0 0 0) (0 0 0)


(0 0 0) (0 0 1) (1 0 0)  (0.75 0.75 0.75) (0 0 0)
(1 0 0) (0 0 1) (1 0 1)  (0.75 0.75 0.75) (0 0 0)

(0 0 0.375) (0 0.25 0.375) (0 0    0.625)  (0 0 0) (50 50 50)
(0 0 0.625) (0 0.25 0.375) (0 0.25 0.625)  (0 0 0) (50 50 50)

(1 0      0.375 ) (1 0      0.4375) (1 0.0625 0.375 )  (0 0 0) (50 50 50)
(1 0.0625 0.375 ) (1 0      0.4375) (1 0.0625 0.4375)  (0 0 0) (50 50 50)
(1 0      0.4375) (1 0      0.5   ) (1 0.0625 0.4375)  (0 0 0) (50 50 50)
(1 0.0625 0.4375) (1 0      0.5   ) (1 0.0625 0.5   )  (0 0 0) (50 50 50)
(1 0      0.5   ) (1 0      0.5625) (1 0.0625 0.5   )  (0 0 0) (50 50 50)
(1 0.0625 0.5   ) (1 0      0.5625) (1 0.0625 0.5625)  (0 0 0) (50 50 50)
(1 0      0.5625) (1 0      0.625 ) (1 0.0625 0.5625)  (0 0 0) (50 50 50)
(1 0.0625 0.5625) (1 0      0.625 ) (1 0.0625 0.625 )  (0 0 0) (50 50 50)

(1 0.0625 0.375 ) (1 0.0625 0.4375) (1 0.125  0.375 )  (0 0 0) (50 50 50)
(1 0.125  0.375 ) (1 0.0625 0.4375) (1 0.125  0.4375)  (0 0 0) (50 50 50)
(1 0.0625 0.4375) (1 0.0625 0.5   ) (1 0.125  0.4375)  (0 0 0) (50 50 50)
(1 0.125  0.4375) (1 0.0625 0.5   ) (1 0.125  0.5   )  (0 0 0) (50 50 50)
(1 0.0625 0.5   ) (1 0.0625 0.5625) (1 0.125  0.5   )  (0 0 0) (50 50 50)
(1 0.125  0.5   ) (1 0.0625 0.5625) (1 0.125  0.5625)  (0 0 0) (50 50 50)
(1 0.0625 0.5625) (1 0.0625 0.625 ) (1 0.125  0.5625)  (0 0 0) (50 50 50)
(1 0.125  0.5625) (1 0.0625 0.625 ) (1 0.125  0.625 )  (0 0 0) (50 50 50)

(1 0.125  0.375 ) (1 0.125  0.4375) (1 0.1875 0.375 )  (0 0 0) (50 50 50)
(1 0.1875 0.375 ) (1 0.125  0.4375) (1 0.1875 0.4375)  (0 0 0) (50 50 50)
(1 0.125  0.4375) (1 0.125  0.5   ) (1 0.1875 0.4375)  (0 0 0) (50 50 50)
(1 0.1875 0.4375) (1 0.125  0.5   ) (1 0.1875 0.5   )  (0 0 0) (50 50 50)
(1 0.125  0.5   ) (1 0.125  0.5625) (1 0.1875 0.5   )  (0 0 0) (50 50 50)
(1 0.1875 0.5   ) (1 0.125  0.5625) (1 0.1875 0.5625)  (0 0 0) (50 50 50)
(1 0.125  0.5625) (1 0.125  0.625 ) (1 0.1875 0.5625)  (0 0 0) (50 50 50)
(1 0.1875 0.5625) (1 0.125  0.625 ) (1 0.1875 0.625 )  (0 0 0) (50 50 50)

(1 0.1875 0.375 ) (1 0.1875 0.4375) (1 0.25   0.375 )  (0 0 0) (50 50 50)
(1 0.25   0.375 ) (1 0.1875 0.4375) (1 0.25   0.4375)  (0 0 0) (50 50 50)
(1 0.1875 0.4375) (1 0.1875 0.5   ) (1 0.25   0.4375)  (0 0 0) (50 50 50)
(1 0.25   0.4375) (1 0.1875 0.5   ) (1 0.25   0.5   )  (0 0 0) (50 50 50)
(1 0.1875 0.5   ) (1 0.1875 0.5625) (1 0.25   0.5   )  (0 0 0) (50 50 50)
(1 0.25   0.5   ) (1 0.1875 0.5625) (1 0.25   0.5625)  (0 0 0) (50 50 50)
(1 0.1875 0.5625) (1 0.1875 0.625 ) (1 0.25   0.5625)  (0 0 0) (50 50 50)
(1 0.25   0.5625) (1 0.1875 0.625 ) (1 0.25   0.625 )  (0 0 0) (50 50 50)
